"	https://analytics.amplitude.com/abinbev/notebook/p0dc59c/breadcrumbs/chart/7ufxi0d/edit/a28q942"
"	Task History Details Clicked; All Users"

"	Totals"
"	Task History Details Clicked"

"	[Amplitude] Country; [Amplitude] User ID","	2022-12-26","	2023-01-02","	2023-01-09","	2023-01-16","	2023-01-23","	2023-01-30","	2023-02-06","	2023-02-13","	2023-02-20","	2023-02-27","	2023-03-06","	2023-03-13","	2023-03-20"
"	Colombia; COCOM4BT","122","0","71","127","102","34","0","8","12","0","0","0","0"
"	Colombia; COCOM3FB","4","0","0","26","58","59","0","64","56","4","0","148","11"
"	Colombia; COCOM5R2","32","0","93","80","78","22","39","23","5","0","8","5","0"
"	Colombia; COCOM2Y5","73","0","104","85","37","2","11","9","20","1","22","12","2"
"	Colombia; COCOM3T1","44","0","54","65","72","28","10","15","5","0","0","10","3"
"	Colombia; COCOM318","37","1","2","51","49","19","0","19","45","13","5","47","8"
"	Colombia; COCOM5O1","0","0","37","53","74","15","43","17","10","1","10","24","2"
"	Colombia; COCOM1X7","0","0","0","53","136","71","0","1","0","0","0","0","0"
"	Colombia; COCOM5Q3","18","0","56","77","58","18","4","5","1","0","8","2","0"
"	Colombia; COCOM5Y9","37","0","49","54","23","12","25","9","7","2","12","11","0"
"	Colombia; COCOM4W2","6","0","2","22","9","2","31","74","24","12","31","8","1"
"	Colombia; COCOM186","0","0","17","90","45","12","3","11","17","7","0","14","2"
"	Colombia; COCOM2DH","26","0","27","35","23","20","10","15","18","7","14","18","2"
"	Colombia; COCOM3W9","42","0","43","55","17","5","2","4","6","3","12","4","0"
"	Colombia; COCOM4O9","7","0","0","3","3","1","0","13","129","21","0","5","1"
"	Colombia; COCOM1O1","0","0","20","92","30","4","0","3","3","3","3","2","0"
"	Colombia; COCOM2I7","34","0","0","32","56","11","0","13","4","0","0","0","0"
"	Colombia; COCOM723","27","2","0","49","0","1","5","18","22","0","2","19","3"
"	Colombia; COCOM2CV","16","0","34","20","6","4","21","15","18","2","1","11","0"
"	Colombia; COCOM2Y8","9","0","5","32","8","2","20","36","14","4","1","9","2"
"	Colombia; COCOM1R7","22","0","40","56","23","0","0","0","0","0","0","0","0"
"	Colombia; COCOM1J0","0","0","36","53","19","1","4","8","3","4","9","3","1"
"	Colombia; COCOM3U2","0","0","12","13","71","7","12","8","13","0","0","4","0"
"	Colombia; COCOM4AZ","23","0","38","27","9","1","10","10","5","0","8","6","0"
"	Colombia; COCOM5Q1","9","0","26","45","14","5","7","2","16","0","8","3","0"
"	Colombia; COCOM5BD","0","0","4","0","1","0","3","21","31","6","6","52","10"
"	Colombia; COCOM4DA","15","0","12","28","25","8","7","6","3","2","7","14","6"
"	Colombia; COCOM1O0","11","1","40","11","18","10","3","7","9","8","4","9","0"
"	Colombia; COCOM5AA","39","0","0","30","20","12","0","4","8","0","0","11","5"
"	Colombia; COCOM5X7","0","0","65","28","15","2","4","1","6","2","3","3","0"
"	Colombia; COCOM13C","26","0","24","31","40","3","0","0","0","0","0","0","0"
"	Colombia; COCOM4GV","25","0","0","11","5","3","1","2","2","2","23","45","0"
"	Colombia; COCOM6A6","0","0","0","20","81","10","3","3","1","1","0","0","0"
"	Colombia; COCOM5BO","0","0","22","23","30","0","13","6","5","0","7","10","2"
"	Colombia; COCOM4GO","23","0","33","48","9","0","0","0","1","1","0","0","0"
"	Colombia; COCOM3T5","0","0","30","42","18","7","3","7","3","0","1","0","0"
"	Colombia; COCOM4CB","0","0","0","0","0","0","0","0","4","0","32","73","0"
"	Colombia; COCOM3U5","4","0","24","27","16","4","3","6","3","1","12","7","0"
"	Colombia; COCOM539","46","0","0","33","16","3","1","4","2","1","0","0","0"
"	Colombia; COCOM5V1","6","0","0","40","37","6","0","5","8","4","0","0","0"
"	Colombia; COCOM1Y5","0","0","0","0","28","4","0","5","5","14","12","32","4"
"	Colombia; COCOM4BI","0","0","3","25","2","2","27","28","4","8","2","2","0"
"	Colombia; COCOM1AP","13","0","25","33","11","4","8","6","0","0","0","0","0"
"	Colombia; COCOM3DD","0","0","0","66","9","14","6","2","0","0","0","0","0"
"	Colombia; COCOM449","1","0","0","0","0","0","0","0","7","0","71","17","0"
"	Colombia; COCOM5AB","0","0","0","1","7","0","15","3","1","0","12","45","11"
"	Colombia; COCOM686","12","0","9","17","5","0","11","15","21","1","3","1","0"
"	Colombia; COCOM3X6","0","0","2","27","29","22","2","3","3","1","3","1","0"
"	Colombia; COCOM3DO","2","0","5","21","10","3","10","8","8","5","11","10","0"
"	Colombia; COCOM3H0","3","0","0","19","54","16","0","0","0","0","0","0","0"
"	Colombia; COCOM4Q2","0","0","0","0","0","0","1","2","5","0","14","67","2"
"	Colombia; COCOM3T3","0","0","6","14","23","9","25","7","1","0","5","0","1"
"	Colombia; COCOM1Z7","0","0","0","0","0","0","0","31","23","11","7","14","3"
"	Colombia; COCOM3T0","2","0","24","32","19","6","2","0","0","0","2","1","0"
"	Colombia; COCOM6B8","0","0","0","0","0","0","0","0","21","0","31","28","0"
"	Colombia; COCOM139","0","0","0","1","32","26","0","1","8","3","0","6","0"
"	Colombia; COCOM2W0","10","0","15","28","4","1","1","3","6","0","1","4","1"
"	Colombia; COCOM4Q8","3","0","6","7","9","4","1","12","8","0","8","15","1"
"	Colombia; COCOM5AV","0","0","0","16","15","8","5","6","8","4","0","10","0"
"	Colombia; COCOM1R0","8","0","18","15","3","2","0","4","10","1","4","6","1"
"	Colombia; COCOM3EY","0","0","0","31","11","0","0","20","6","1","0","1","2"
"	Colombia; COCOM611","4","0","0","41","23","2","0","0","0","0","0","0","0"
"	Colombia; COCOM4Q1","0","0","0","0","0","0","0","1","5","1","0","61","0"
"	Colombia; COCOM3T2","8","0","8","15","20","8","6","1","2","0","0","0","0"
"	Colombia; COCOM4T7","10","0","0","29","24","3","0","1","0","0","0","0","0"
"	Colombia; COCOM2U0","0","1","37","15","2","0","5","4","2","0","1","0","0"
"	Colombia; COCOM4FG","64","0","0","1","0","0","0","0","0","0","0","0","0"
"	Colombia; COCOM4Q3","4","0","36","11","6","0","1","1","0","0","0","4","1"
"	Colombia; COCOM4CW","0","0","21","32","2","0","0","0","0","0","1","8","0"
"	Colombia; COCOM18G","0","0","0","28","32","2","1","0","0","0","0","0","0"
"	Colombia; COCOM4X5","0","0","0","6","11","11","4","6","9","5","6","5","0"
"	Colombia; COCOM1HY","1","0","0","10","10","0","0","7","10","3","12","7","1"
"	Colombia; COCOM2W1","12","0","9","15","6","9","0","4","0","1","3","1","0"
"	Colombia; COCOM12E","20","0","13","7","3","0","1","9","1","0","5","1","0"
"	Colombia; COCOM3R2","0","0","24","9","3","2","0","6","6","1","0","8","1"
"	Colombia; COCOM3T9","2","0","1","7","23","11","0","6","1","0","3","6","0"
"	Colombia; COCOM5ES","1","0","9","4","4","0","15","18","5","2","2","0","0"
"	Colombia; COCOM3DH","29","0","10","8","5","5","1","1","1","0","0","0","0"
"	Colombia; COCOM3Y3","6","0","22","2","0","1","4","6","15","1","1","0","0"
"	Colombia; COCOM3R3","0","0","11","13","8","2","6","12","2","0","3","1","0"
"	Colombia; COCOM2W2","11","0","3","6","6","0","0","8","14","2","0","5","2"
"	Colombia; COCOM116","13","0","0","29","6","1","0","0","2","6","0","0","0"
"	Colombia; COCOM3X5","0","0","18","18","3","2","8","4","1","1","0","2","0"
"	Colombia; COCOM5Q4","0","0","11","17","1","0","14","6","1","0","3","4","0"
"	Colombia; COCOM5CY","0","1","3","7","3","12","2","5","2","9","10","3","0"
"	Colombia; COCOM2U8","18","0","0","10","12","7","0","3","6","0","0","0","0"
"	Colombia; COCOM6I7","26","0","13","1","0","0","5","2","7","0","1","1","0"
"	Colombia; COCOM5Q6","1","0","34","17","1","2","0","0","0","0","0","1","0"
"	Colombia; COCOM4S3","0","0","0","29","0","0","0","1","8","4","3","10","0"
"	Colombia; COCOM4EF","6","0","3","1","0","0","1","2","5","1","22","14","0"
"	Colombia; COCOM5P8","5","0","0","13","14","7","0","6","8","2","0","0","0"
"	Colombia; COCOM5FH","5","0","14","12","16","2","1","3","0","0","0","0","1"
"	Colombia; COCOM2O3","0","0","12","22","6","0","5","2","5","1","0","0","0"
"	Colombia; COCOM2L7","4","1","16","15","4","1","5","3","2","1","0","0","1"
"	Colombia; COCOM1S5","0","0","0","0","0","0","0","4","13","31","3","1","1"
"	Colombia; COCOM1IX","5","5","11","9","3","3","1","0","2","1","9","4","0"
"	Colombia; COCOM4A7","0","0","0","10","5","3","5","25","3","0","0","0","0"
"	Colombia; COCOM15I","0","0","0","35","15","0","0","0","0","0","0","0","0"
"	Colombia; COCOM4BG","0","0","0","0","0","0","0","0","0","0","0","50","0"
"	Colombia; COCOM3S9","0","0","16","16","12","2","1","1","1","0","1","0","0"
"	Colombia; COCOM5Q8","2","0","12","22","6","4","3","1","0","0","0","0","0"
"	Colombia; COCOM2M6","13","0","12","21","0","2","1","0","0","0","0","0","0"
"	Colombia; COCOM1P8","19","0","0","25","0","0","0","0","0","0","3","2","0"
"	Colombia; COCOM3AW","0","0","12","12","4","0","2","3","6","2","6","2","0"
"	Colombia; COCOM1BJ","1","3","2","1","1","0","8","4","3","11","9","6","0"
"	Colombia; COCOM4CA","0","0","0","0","0","0","0","0","5","5","27","11","0"
"	Colombia; COCOM3CA","0","0","1","6","3","8","4","4","5","6","5","5","1"
"	Colombia; COCOM119","0","0","5","4","13","4","1","13","4","0","2","0","0"
"	Colombia; COCOM4GS","1","0","11","14","0","0","0","1","2","2","6","8","0"
"	Colombia; COCOM3AR","3","0","0","20","4","5","0","7","4","1","0","0","0"
"	Colombia; COCOM5HC","0","2","11","6","1","4","1","4","4","7","3","1","0"
"	Colombia; COCOM13A","5","0","14","5","10","3","0","0","4","2","0","0","0"
"	Colombia; COCOM6Q2","0","0","0","0","0","0","9","11","9","3","5","3","3"
"	Colombia; COCOM4Q0","0","0","6","3","2","3","1","1","14","0","12","1","0"
"	Colombia; COCOM3Y8","1","0","5","15","8","4","2","1","3","4","0","0","0"
"	Colombia; COCOM5Z6","7","0","8","11","12","2","0","1","1","0","0","1","0"
"	Colombia; COCOM4AC","0","0","15","13","7","3","0","3","0","0","1","0","0"
"	Colombia; COCOM1P1","0","0","8","21","13","0","0","0","0","0","0","0","0"
"	Colombia; COCOM3W3","0","0","22","16","2","0","0","1","1","0","0","0","0"
"	Colombia; COCOM6L0","15","0","8","7","4","3","0","1","0","1","1","1","0"
"	Colombia; COCOM5R4","1","0","5","12","5","0","3","2","4","0","6","3","0"
"	Colombia; COCOM3DF","5","0","9","7","11","1","2","0","2","0","2","1","1"
"	Colombia; COCOM2R6","0","0","5","2","0","1","4","3","2","2","6","15","0"
"	Colombia; COCOM3R4","0","0","3","3","12","8","6","2","1","0","4","1","0"
"	Colombia; COCOM1B5","0","0","1","1","0","0","7","7","15","3","2","3","1"
"	Colombia; COCOM2Z3","19","0","5","1","4","2","4","2","0","1","1","0","0"
"	Colombia; COCOM19D","1","0","0","5","15","13","1","3","0","0","0","0","0"
"	Colombia; COCOM5BM","3","0","1","0","8","0","1","0","7","0","6","12","0"
"	Colombia; COCOM4DO","0","0","0","0","0","0","0","0","0","0","20","17","0"
"	Colombia; COCOM4BY","0","0","0","8","15","4","1","0","8","0","0","0","0"
"	Colombia; COCOM3U4","0","0","11","8","3","0","3","0","4","3","3","1","0"
"	Colombia; COCOM4R4","4","0","1","2","1","1","0","4","12","5","0","4","1"
"	Colombia; COCOM720","4","0","0","6","9","1","3","4","6","0","0","0","2"
"	Colombia; COCOM4P9","1","0","15","11","0","0","0","0","0","0","0","8","0"
"	Colombia; COCOM3DU","7","0","4","9","3","0","6","4","0","0","2","0","0"
"	Colombia; COCOM4S6","0","0","0","0","0","0","3","4","1","0","1","25","0"
"	Colombia; COCOM11B","0","0","0","0","0","0","0","0","0","0","0","27","7"
"	Colombia; COCOM4P4","5","0","11","3","0","0","0","0","2","0","7","6","0"
"	Colombia; COCOM4AO","1","0","4","27","0","0","0","1","0","0","0","1","0"
"	Colombia; COCOM4DJ","0","0","0","0","0","0","0","4","5","0","18","7","0"
"	Colombia; COCOM4BR","0","0","2","0","0","0","1","1","0","0","0","25","4"
"	Colombia; COCOM4DR","0","0","0","0","0","0","1","0","0","0","25","7","0"
"	Colombia; COCOM5Q2","0","0","15","16","2","0","0","0","0","0","0","0","0"
"	Colombia; COCOM3C5","0","0","0","8","0","0","0","20","5","0","0","0","0"
"	Colombia; COCOM5AK","0","0","4","3","4","1","4","6","3","0","2","4","1"
"	Colombia; COCOM5BP","0","0","0","0","4","28","0","0","0","0","0","0","0"
"	Colombia; COCOM2U2","0","0","0","17","5","3","2","0","4","1","0","0","0"
"	Colombia; COCOM4CE","0","0","0","1","0","0","3","2","2","0","12","12","0"
"	Colombia; COCOM1Q7","5","0","0","3","0","0","0","0","0","0","1","22","1"
"	Colombia; COCOM5F5","2","0","0","5","17","7","0","1","0","0","0","0","0"
"	Colombia; COCOM15H","0","0","0","0","4","1","2","0","8","4","4","7","1"
"	Colombia; COCOM2CL","0","0","6","0","0","0","0","0","5","5","4","11","0"
"	Colombia; COCOM3Z6","8","0","2","3","4","2","0","3","5","3","0","0","0"
"	Colombia; COCOM3U1","0","0","10","14","4","0","1","1","0","0","0","0","0"
"	Colombia; COCOM1Q6","1","0","0","0","13","14","0","0","0","0","2","0","0"
"	Colombia; COCOM5EP","0","0","14","1","0","0","0","1","2","0","7","5","0"
"	Colombia; COCOM14F","3","0","0","2","0","0","0","2","2","2","3","14","1"
"	Colombia; COCOM4R7","1","0","0","16","4","0","0","1","2","3","0","2","0"
"	Colombia; COCOM2T9","0","0","1","19","3","4","2","0","0","0","0","0","0"
"	Colombia; COCOM4CC","9","0","0","6","7","5","0","1","0","1","0","0","0"
"	Colombia; COCOM15F","0","0","0","0","15","9","0","0","0","4","0","0","0"
"	Colombia; COCOM5AL","0","0","5","13","9","0","0","1","0","0","0","0","0"
"	Colombia; COCOM4BF","0","0","8","12","1","0","0","0","1","1","0","5","0"
"	Colombia; COCOM4GU","23","0","4","1","0","0","0","0","0","0","0","0","0"
"	Colombia; COCOM2DI","2","0","0","0","0","0","0","0","0","0","5","20","1"
"	Colombia; COCOM5FT","15","5","3","1","0","1","0","0","0","0","0","3","0"
"	Colombia; COCOM3U3","10","0","0","6","4","4","0","0","2","0","0","1","0"
"	Colombia; COCOM1G8","2","0","2","6","1","1","0","7","5","1","1","0","1"
"	Colombia; COCOM3X7","0","0","9","6","2","5","1","0","2","0","0","1","0"
"	Colombia; COCOM3S4","0","0","6","6","11","0","0","0","0","0","0","3","0"
"	Colombia; COCOM5N4","0","0","0","0","0","0","4","21","1","0","0","0","0"
"	Colombia; COCOM4IH","0","25","0","0","0","0","0","0","0","0","0","0","0"
"	Colombia; COCOM6R0","0","0","0","0","0","0","0","1","7","5","6","5","1"
"	Colombia; COCOM2M8","2","0","0","1","1","1","8","6","4","0","0","1","1"
"	Colombia; COCOM3K2","0","0","0","0","2","4","0","5","12","0","1","1","0"
"	Colombia; COCOM4AJ","1","0","0","6","2","2","0","8","3","2","0","0","0"
"	Colombia; COCOM5FS","2","4","7","3","0","2","0","0","3","2","1","0","0"
"	Colombia; COCOM102","2","0","0","0","0","0","0","0","0","0","0","8","13"
"	Colombia; COCOM4Q5","11","0","0","9","0","1","0","0","0","0","0","2","0"
"	Colombia; COCOM4DT","0","0","0","0","0","0","1","0","0","0","16","6","0"
"	Colombia; COCOM3Z7","0","0","0","0","1","0","1","8","7","4","1","1","0"
"	Colombia; COCOM1R2","0","0","6","5","5","2","0","0","3","0","1","1","0"
"	Colombia; COCOM4R3","0","0","0","0","0","0","0","0","4","1","1","15","1"
"	Colombia; COCOM4O5","0","0","2","13","4","0","0","0","3","0","0","0","0"
"	Colombia; COCOM3Y9","6","0","7","5","2","0","0","0","0","0","0","2","0"
"	Colombia; COCOM1AQ","0","0","1","3","7","0","2","2","4","0","3","0","0"
"	Colombia; COCOM1AT","1","0","11","6","3","1","0","0","0","0","0","0","0"
"	Colombia; COCOM3EX","11","0","0","6","4","1","0","0","0","0","0","0","0"
"	Colombia; COCOM492","10","0","1","9","0","0","0","0","1","0","0","0","0"
"	Colombia; COCOM5BC","0","0","14","1","4","1","0","0","0","0","0","0","0"
"	Colombia; COCOM2V1","0","0","0","0","0","0","0","10","7","2","0","0","1"
"	Colombia; COCOM4DQ","0","0","5","8","3","0","0","0","0","0","4","0","0"
"	Colombia; COCOM6J9","0","0","0","17","3","0","0","0","0","0","0","0","0"
"	Colombia; COCOM2AJ","0","0","0","0","0","0","0","2","16","2","0","0","0"
"	Colombia; COCOM6CB","0","0","0","0","1","0","0","0","5","6","7","1","0"
"	Colombia; COCOM1Y8","0","0","0","0","0","0","0","0","0","0","0","17","2"
"	Colombia; COCOM5T7","11","0","0","0","0","0","0","6","0","0","0","2","0"
"	Colombia; COCOM628","19","0","0","0","0","0","0","0","0","0","0","0","0"
"	Colombia; COCOM5CU","0","0","1","5","2","3","0","0","0","5","3","0","0"
"	Colombia; COCOM5GK","0","0","1","1","2","5","1","0","5","0","2","2","0"
"	Colombia; COCOM1AR","0","0","0","0","0","0","0","0","16","0","3","0","0"
"	Colombia; COCOM1BD","0","0","1","0","0","0","0","2","6","0","4","5","1"
"	Colombia; COCOM5BS","0","0","0","1","0","0","10","3","0","0","2","2","0"
"	Colombia; COCOM4KB","3","2","4","1","0","4","0","0","0","0","4","0","0"
"	Colombia; COCOM6EK","4","4","4","0","0","1","2","0","0","2","1","0","0"
"	Colombia; COCOM4BO","0","0","4","3","0","0","1","2","3","3","2","0","0"
"	Colombia; COCOM3AD","0","0","3","7","1","0","3","3","0","0","0","1","0"
"	Colombia; COCOM2R9","0","0","0","0","0","0","0","5","11","0","1","0","0"
"	Colombia; COCOM2V3","0","0","0","9","1","0","4","3","0","0","0","0","0"
"	Colombia; COCOM6N9","0","0","1","0","6","0","1","0","7","0","1","1","0"
"	Colombia; COCOM6Q0","0","0","5","9","3","0","0","0","0","0","0","0","0"
"	Colombia; COCOM4M5","0","0","0","0","0","0","0","0","0","0","0","10","7"
"	Colombia; COCOM4FY","0","0","0","0","0","0","0","8","9","0","0","0","0"
"	Colombia; COCOM2CE","0","0","0","14","1","0","2","0","0","0","0","0","0"
"	Colombia; COCOM3Y1","0","0","0","7","2","1","0","0","1","0","0","6","0"
"	Colombia; COCOM1O5","0","0","12","3","2","0","0","0","0","0","0","0","0"
"	Colombia; COCOM5P6","0","0","0","9","2","0","0","3","3","0","0","0","0"
"	Colombia; COCOM5BY","0","0","0","0","2","0","0","1","0","0","7","5","1"
"	Colombia; COCOM4DG","0","0","0","0","0","0","0","0","0","0","9","6","1"
"	Colombia; COCOM2AK","0","0","0","10","5","1","0","0","0","0","0","0","0"
"	Colombia; COCOM2DJ","0","0","0","0","0","0","1","0","0","0","3","12","0"
"	Colombia; COCOM5U6","0","0","0","0","0","0","0","0","0","0","8","6","2"
"	Colombia; COCOM1O4","0","0","2","0","0","0","0","4","2","7","0","1","0"
"	Colombia; COCOM5Q9","0","0","10","3","1","0","0","0","0","0","2","0","0"
"	Colombia; COCOM3DG","0","0","3","6","3","0","0","0","2","0","0","1","1"
"	Colombia; COCOM1C3","0","0","2","1","0","0","0","3","2","0","0","7","1"
"	Colombia; COCOM379","1","0","0","1","1","0","0","1","6","2","1","2","0"
"	Colombia; COCOM5BV","0","0","0","0","5","9","1","0","0","0","0","0","0"
"	Colombia; COCOM5BX","2","0","0","1","6","0","0","1","4","0","0","1","0"
"	Colombia; COCOM546","2","0","0","0","1","4","1","3","3","0","1","0","0"
"	Colombia; COCOM2O6","2","0","6","3","1","0","0","1","0","1","1","0","0"
"	Colombia; COCOM3D2","3","0","0","2","2","3","0","0","1","2","0","1","1"
"	Colombia; COCOM2T2","1","0","0","0","0","0","2","5","0","0","3","3","0"
"	Colombia; COCOM4AE","4","0","0","0","4","6","0","0","0","0","0","0","0"
"	Colombia; COCOM6G8","0","0","0","11","2","0","1","0","0","0","0","0","0"
"	Colombia; COCOM682","0","0","0","0","12","1","0","0","0","0","0","1","0"
"	Colombia; COCOM5N6","0","0","1","8","3","1","0","0","1","0","0","0","0"
"	Colombia; COCOM5R1","0","0","3","7","0","0","0","2","1","0","1","0","0"
"	Colombia; COCOM5R7","0","0","9","3","0","0","0","0","1","0","0","1","0"
"	Colombia; COCOM6U6","0","0","0","0","0","0","3","3","3","0","0","3","1"
"	Colombia; COCOM6EU","0","1","0","0","2","0","3","0","2","0","4","1","0"
"	Colombia; COCOM4CL","0","0","0","0","0","0","0","0","8","2","0","2","1"
"	Colombia; COCOM2BO","1","0","0","0","0","0","0","7","5","0","0","0","0"
"	Colombia; COCOM2E4","0","0","0","9","0","0","4","0","0","0","0","0","0"
"	Colombia; COCOM1U1","0","0","0","0","1","0","0","0","1","1","7","3","0"
"	Colombia; COCOM1V4","0","0","0","0","0","0","4","4","4","0","0","1","0"
"	Colombia; COCOM1S3","0","0","0","2","0","2","0","0","1","0","0","8","0"
"	Colombia; COCOM1G9","1","0","0","0","0","0","0","0","11","1","0","0","0"
"	Colombia; COCOM5Q0","0","0","4","3","0","0","0","0","0","0","6","0","0"
"	Colombia; COCOM5GS","3","2","4","2","0","0","1","0","0","0","0","1","0"
"	Colombia; COCOM2Q4","8","0","0","0","0","1","0","0","1","1","0","1","0"
"	Colombia; COCOM6S5","0","0","0","0","0","0","0","0","12","0","0","0","0"
"	Colombia; COCOM2K7","0","0","0","0","0","11","0","0","0","0","0","1","0"
"	Colombia; COCOM6U2","0","0","0","0","0","0","7","2","2","1","0","0","0"
"	Colombia; COCOM4DU","0","0","0","0","0","0","0","0","0","0","12","0","0"
"	Colombia; COCOM267","0","0","0","1","1","0","0","2","1","2","0","4","1"
"	Colombia; COCOM1S6","0","0","0","0","0","0","0","0","12","0","0","0","0"
"	Colombia; COCOM3H5","0","0","0","0","0","0","8","4","0","0","0","0","0"
"	Colombia; COCOM1CK","1","0","0","2","1","2","0","0","1","3","0","1","1"
"	Colombia; COCOM5L2","0","0","0","8","3","1","0","0","0","0","0","0","0"
"	Colombia; COCOM5DN","0","0","0","3","7","1","0","0","1","0","0","0","0"
"	Colombia; COCOM3FD","0","0","0","0","0","0","0","0","1","0","0","9","2"
"	Colombia; COCOM2W5","0","0","5","6","0","0","0","0","0","0","0","0","0"
"	Colombia; COCOM18C","3","0","0","5","2","1","0","0","0","0","0","0","0"
"	Colombia; COCOM5BK","0","0","0","2","2","0","0","0","3","0","0","4","0"
"	Colombia; COCOM2U7","0","0","0","9","2","0","0","0","0","0","0","0","0"
"	Colombia; COCOM4JQ","0","0","2","0","1","1","2","1","2","0","2","0","0"
"	Colombia; COCOM4DI","0","0","0","3","5","0","0","0","0","0","0","3","0"
"	Colombia; COCOM3Y2","0","0","0","0","0","0","0","0","11","0","0","0","0"
"	Colombia; COCOM3Q5","0","0","1","5","1","2","1","1","0","0","0","0","0"
"	Colombia; COCOM5W6","1","0","0","6","3","0","0","1","0","0","0","0","0"
"	Colombia; COCOM2ZN","0","0","0","0","0","0","0","2","0","3","3","1","1"
"	Colombia; COCOM6W0","0","1","4","2","0","2","0","0","0","1","0","0","0"
"	Colombia; COCOM2U4","6","0","0","2","2","0","0","0","0","0","0","0","0"
"	Colombia; COCOM4FF","1","0","0","0","2","0","2","0","3","0","2","0","0"
"	Colombia; COCOM4IA","0","1","0","0","0","0","0","0","0","3","5","1","0"
"	Colombia; COCOM3Y5","1","0","0","3","0","0","0","0","6","0","0","0","0"
"	Colombia; COCOM3Y6","0","0","0","0","0","0","0","1","6","3","0","0","0"
"	Colombia; COCOM1N9","0","0","0","0","0","0","0","1","1","1","6","1","0"
"	Colombia; COCOM5CW","8","0","0","0","0","0","0","0","0","0","0","2","0"
"	Colombia; COCOM3BA","0","0","0","0","2","0","6","0","0","0","1","1","0"
"	Colombia; COCOM5GL","0","0","0","0","10","0","0","0","0","0","0","0","0"
"	Colombia; COCOM5HS","0","1","2","1","1","1","2","0","0","0","2","0","0"
"	Colombia; COCOM330","0","0","0","0","0","0","0","0","0","9","0","0","0"
"	Colombia; COCOM718","0","0","0","0","0","0","0","3","6","0","0","0","0"
"	Colombia; COCOM2I9","0","0","0","1","0","0","0","5","2","0","0","1","0"
"	Colombia; COCOM2M4","5","0","0","0","0","0","0","1","1","2","0","0","0"
"	Colombia; COCOM4FC","0","0","0","1","2","6","0","0","0","0","0","0","0"
"	Colombia; COCOM3Q3","0","0","3","0","0","2","1","3","0","0","0","0","0"
"	Colombia; COCOM647","0","0","1","5","1","0","0","0","2","0","0","0","0"
"	Colombia; COCOM409","0","0","0","0","6","2","0","0","0","0","1","0","0"
"	Colombia; COCOM5FR","0","0","0","3","0","1","4","1","0","0","0","0","0"
"	Colombia; COCOM5HO","0","0","0","0","0","3","0","1","0","3","0","2","0"
"	Colombia; COCOM1AA","0","0","0","0","0","0","0","3","1","3","0","2","0"
"	Colombia; COCOM16F","0","0","0","0","1","7","0","0","0","0","0","0","0"
"	Colombia; COCOM2ZR","1","4","0","2","1","0","0","0","0","0","0","0","0"
"	Colombia; COCOM5AE","0","0","0","0","0","0","2","0","0","0","0","6","0"
"	Colombia; COCOM5C1","0","0","0","3","5","0","0","0","0","0","0","0","0"
"	Colombia; COCOM6W5","7","0","0","0","0","0","0","0","0","1","0","0","0"
"	Colombia; COCOM4U5","0","0","0","7","1","0","0","0","0","0","0","0","0"
"	Colombia; COCOM4P5","0","0","2","2","0","0","0","1","0","0","1","2","0"
"	Colombia; COCOM4AB","0","0","1","1","2","0","2","2","0","0","0","0","0"
"	Colombia; COCOM4CN","0","0","0","0","0","0","0","0","0","0","0","8","0"
"	Colombia; COCOM2CI","0","0","8","0","0","0","0","0","0","0","0","0","0"
"	Colombia; COCOM2DN","0","0","0","0","0","0","0","0","0","1","1","6","0"
"	Colombia; COCOM1T7","0","0","0","3","0","0","0","0","1","1","3","0","0"
"	Colombia; COCOM1W6","0","0","0","2","0","0","0","0","0","0","0","5","1"
"	Colombia; COCOM3T7","0","0","0","0","0","0","0","5","2","0","0","0","1"
"	Colombia; COCOM3L6","0","0","2","1","0","0","0","4","1","0","0","0","0"
"	Colombia; COCOM14C","1","0","1","0","0","0","0","1","4","0","0","0","0"
"	Colombia; COCOM150","0","0","0","0","0","0","0","3","3","1","0","0","0"
"	Colombia; COCOM16A","0","0","0","0","0","0","0","1","4","2","0","0","0"
"	Colombia; COCOM5BE","0","0","0","0","0","0","0","0","0","0","4","3","0"
"	Colombia; COCOM6W4","0","0","0","0","0","0","4","2","0","0","0","1","0"
"	Colombia; COCOM4X3","1","0","0","5","0","0","0","1","0","0","0","0","0"
"	Colombia; COCOM713","0","0","0","0","5","1","0","0","0","0","1","0","0"
"	Colombia; COCOM4Q6","0","0","0","0","0","0","0","6","1","0","0","0","0"
"	Colombia; COCOM4AQ","0","0","0","0","4","0","0","0","3","0","0","0","0"
"	Colombia; COCOM6FK","0","0","1","0","0","3","1","1","0","1","0","0","0"
"	Colombia; COCOM4FH","0","0","0","0","0","0","0","0","0","0","0","6","1"
"	Colombia; COCOM6CM","0","6","1","0","0","0","0","0","0","0","0","0","0"
"	Colombia; COCOM6E2","0","0","1","4","0","0","0","0","2","0","0","0","0"
"	Colombia; COCOM6E7","0","0","0","0","4","2","1","0","0","0","0","0","0"
"	Colombia; COCOM3Q4","0","0","0","7","0","0","0","0","0","0","0","0","0"
"	Colombia; COCOM1N3","0","0","6","1","0","0","0","0","0","0","0","0","0"
"	Colombia; COCOM204","7","0","0","0","0","0","0","0","0","0","0","0","0"
"	Colombia; COCOM1Q8","7","0","0","0","0","0","0","0","0","0","0","0","0"
"	Colombia; COCOM1S7","2","0","1","2","0","2","0","0","0","0","0","0","0"
"	Colombia; COCOM5M4","3","0","0","0","0","0","0","0","4","0","0","0","0"
"	Colombia; COCOM5P9","0","0","4","0","0","0","1","1","0","0","1","0","0"
"	Colombia; COCOM2X5","0","0","0","0","0","0","1","1","1","0","2","1","0"
"	Colombia; COCOM2Z2","0","0","0","0","0","0","0","0","4","2","0","0","0"
"	Colombia; COCOM16B","0","0","0","2","4","0","0","0","0","0","0","0","0"
"	Colombia; COCOM4U3","0","0","2","4","0","0","0","0","0","0","0","0","0"
"	Colombia; COCOM100","0","0","0","0","6","0","0","0","0","0","0","0","0"
"	Colombia; COCOM106","1","0","1","2","0","0","0","1","1","0","0","0","0"
"	Colombia; COCOM2T6","0","0","0","6","0","0","0","0","0","0","0","0","0"
"	Colombia; COCOM6N1","0","0","0","0","0","0","2","3","1","0","0","0","0"
"	Colombia; COCOM4L4","0","0","0","2","0","0","0","0","0","0","1","3","0"
"	Colombia; COCOM2AN","0","3","0","0","1","1","1","0","0","0","0","0","0"
"	Colombia; COCOM4GT","1","0","0","2","1","0","0","2","0","0","0","0","0"
"	Colombia; COCOM6DI","0","0","1","5","0","0","0","0","0","0","0","0","0"
"	Colombia; COCOM5T6","1","0","0","0","0","0","2","1","0","0","1","1","0"
"	Colombia; COCOM1O3","0","0","0","0","0","0","0","1","0","0","1","4","0"
"	Colombia; COCOM5W7","0","0","0","0","0","0","4","0","0","2","0","0","0"
"	Colombia; COCOM3S8","0","0","0","0","0","0","0","2","4","0","0","0","0"
"	Colombia; COCOM1O9","0","0","0","0","0","0","0","0","0","0","5","1","0"
"	Colombia; COCOM1P4","2","0","1","1","2","0","0","0","0","0","0","0","0"
"	Colombia; COCOM615","0","0","0","0","0","0","0","0","5","0","0","1","0"
"	Colombia; COCOM1JE","0","6","0","0","0","0","0","0","0","0","0","0","0"
"	Colombia; COCOM3AU","2","0","0","0","0","0","0","2","0","0","2","0","0"
"	Colombia; COCOM5I5","0","0","0","0","1","0","0","1","0","0","0","4","0"
"	Colombia; COCOM3DI","0","0","0","1","0","0","0","5","0","0","0","0","0"
"	Colombia; COCOM5J4","0","0","0","1","2","2","1","0","0","0","0","0","0"
"	Colombia; COCOM2V9","0","0","0","3","0","0","1","1","0","0","0","0","0"
"	Colombia; COCOM14E","0","0","3","1","1","0","0","0","0","0","0","0","0"
"	Colombia; COCOM2Y7","0","0","0","0","0","0","0","0","3","0","2","0","0"
"	Colombia; COCOM5BQ","0","0","0","0","2","0","0","0","0","0","1","2","0"
"	Colombia; COCOM6V9","0","0","0","1","0","0","0","0","0","1","1","2","0"
"	Colombia; COCOM4T5","0","0","0","2","0","0","0","3","0","0","0","0","0"
"	Colombia; COCOM569","1","0","0","0","0","1","0","1","2","0","0","0","0"
"	Colombia; COCOM4W0","0","0","0","0","0","0","0","0","0","0","2","3","0"
"	Colombia; COCOM4W1","0","0","0","0","0","0","0","0","0","0","3","2","0"
"	Colombia; COCOM2S6","0","0","0","2","0","0","0","1","0","0","0","2","0"
"	Colombia; COCOM6N7","1","0","0","1","1","0","0","0","0","0","0","1","1"
"	Colombia; COCOM4JL","0","0","0","5","0","0","0","0","0","0","0","0","0"
"	Colombia; COCOM4AH","0","0","0","1","3","1","0","0","0","0","0","0","0"
"	Colombia; COCOM6FI","0","0","1","2","0","0","0","0","0","0","0","2","0"
"	Colombia; COCOM6H3","0","0","0","0","0","0","1","1","1","2","0","0","0"
"	Colombia; COCOM6H4","0","0","0","0","4","1","0","0","0","0","0","0","0"
"	Colombia; COCOM4FV","0","0","0","0","0","0","0","0","0","0","5","0","0"
"	Colombia; COCOM2DL","0","0","0","0","0","0","0","0","2","3","0","0","0"
"	Colombia; COCOM6CF","0","0","0","0","0","0","0","0","3","2","0","0","0"
"	Colombia; COCOM3Q7","0","0","0","0","0","0","0","4","0","0","1","0","0"
"	Colombia; COCOM205","0","0","0","0","0","0","1","2","0","0","1","1","0"
"	Colombia; COCOM3U7","2","0","1","1","0","0","0","0","0","0","0","1","0"
"	Colombia; COCOM1S1","0","0","3","1","0","0","0","1","0","0","0","0","0"
"	Colombia; COCOM1FV","0","0","1","1","2","1","0","0","0","0","0","0","0"
"	Colombia; COCOM607","0","0","4","0","1","0","0","0","0","0","0","0","0"
"	Colombia; COCOM638","0","0","0","4","0","0","0","0","1","0","0","0","0"
"	Colombia; COCOM5EZ","1","0","0","3","1","0","0","0","0","0","0","0","0"
"	Colombia; COCOM5FU","0","4","1","0","0","0","0","0","0","0","0","0","0"
"	Colombia; COCOM5FX","0","0","0","0","0","2","0","0","0","1","2","0","0"
"	Colombia; COCOM5FW","0","0","0","0","0","0","0","0","0","3","2","0","0"
"	Colombia; COCOM1A0","0","0","0","0","0","0","0","1","3","0","0","1","0"
"	Colombia; COCOM5HI","0","0","0","0","0","0","0","0","0","4","1","0","0"
"	Colombia; COCOM5HN","0","0","4","0","0","0","0","0","0","1","0","0","0"
"	Colombia; COCOM3DN","0","0","0","0","0","3","0","0","2","0","0","0","0"
"	Colombia; COCOM3EU","0","0","0","0","0","0","1","0","0","0","4","0","0"
"	Colombia; COCOM132","0","0","0","0","0","0","0","0","2","0","0","2","0"
"	Colombia; COCOM2V8","0","0","0","2","0","0","0","2","0","0","0","0","0"
"	Colombia; COCOM14I","0","0","0","1","0","0","0","0","3","0","0","0","0"
"	Colombia; COCOM153","0","0","2","1","0","0","0","0","0","0","0","1","0"
"	Colombia; COCOM14A","0","0","0","0","0","0","0","0","1","0","2","1","0"
"	Colombia; COCOM2ZB","2","0","0","0","0","0","0","0","0","0","2","0","0"
"	Colombia; COCOM18H","0","0","0","0","0","0","0","0","0","0","0","4","0"
"	Colombia; COCOM5AT","0","0","0","0","0","0","4","0","0","0","0","0","0"
"	Colombia; COCOM5AH","0","0","0","2","2","0","0","0","0","0","0","0","0"
"	Colombia; COCOM5BU","0","0","0","0","2","2","0","0","0","0","0","0","0"
"	Colombia; COCOM4U0","2","0","0","2","0","0","0","0","0","0","0","0","0"
"	Colombia; COCOM4T1","0","0","0","0","1","1","0","0","0","0","0","2","0"
"	Colombia; COCOM2Q2","0","0","0","0","0","0","3","0","0","0","0","0","1"
"	Colombia; COCOM6ZA","0","0","0","0","3","0","0","1","0","0","0","0","0"
"	Colombia; COCOM126","0","0","0","0","0","0","0","1","1","0","1","1","0"
"	Colombia; HNHP1241","0","0","0","0","0","0","0","0","0","4","0","0","0"
"	Colombia; COCOM4JR","0","0","1","1","0","0","0","0","0","0","2","0","0"
"	Colombia; COCOM2L4","0","0","0","1","0","0","0","2","1","0","0","0","0"
"	Colombia; COCOM760","0","0","0","4","0","0","0","0","0","0","0","0","0"
"	Colombia; COCOM4BE","0","0","0","2","0","0","2","0","0","0","0","0","0"
"	Colombia; COCOM6FG","0","0","0","0","0","0","3","0","1","0","0","0","0"
"	Colombia; COCOM4BH","0","0","0","0","0","0","0","0","0","0","0","4","0"
"	Colombia; COCOM6J8","0","0","0","0","0","0","4","0","0","0","0","0","0"
"	Colombia; COCOM2AA","0","0","0","0","0","0","4","0","0","0","0","0","0"
"	Colombia; COCOM4EI","0","0","0","2","2","0","0","0","0","0","0","0","0"
"	Colombia; COCOM2BC","1","0","0","1","0","0","0","0","0","0","2","0","0"
"	Colombia; COCOM3Z0","1","0","0","0","0","0","0","0","0","0","0","0","3"
"	Colombia; COCOM1Z5","0","0","0","0","0","0","0","2","1","0","0","1","0"
"	Colombia; COCOM653","0","0","0","0","0","0","0","0","1","1","0","2","0"
"	Colombia; COCOM3P4","0","0","0","0","0","0","0","4","0","0","0","0","0"
"	Colombia; COCOM5Y2","0","0","2","0","2","0","0","0","0","0","0","0","0"
"	Colombia; COCOM3T8","0","0","0","0","4","0","0","0","0","0","0","0","0"
"	Colombia; COCOM699","0","0","0","0","0","0","2","0","2","0","0","0","0"
"	Colombia; COCOM5Z4","0","0","0","0","0","0","1","3","0","0","0","0","0"
"	Colombia; COCOM1Q3","0","0","0","0","0","0","0","0","0","4","0","0","0"
"	Colombia; COCOM1Q9","0","0","0","0","0","0","0","0","0","0","2","2","0"
"	Colombia; COCOM1T1","0","0","0","0","0","0","0","2","0","0","0","2","0"
"	Colombia; COCOM618","0","3","0","0","0","0","0","0","0","0","0","1","0"
"	Colombia; COCOM5P7","0","0","0","2","0","0","0","0","2","0","0","0","0"
"	Colombia; COCOM622","0","0","0","0","2","1","0","1","0","0","0","0","0"
"	Colombia; COCOM1IZ","0","0","0","4","0","0","0","0","0","0","0","0","0"
"	Colombia; COCOM5CV","0","0","0","0","0","0","0","0","0","0","4","0","0"
"	Colombia; COCOM5CX","0","0","0","0","0","3","0","0","0","1","0","0","0"
"	Colombia; COCOM5FV","0","0","0","0","0","0","0","0","0","3","1","0","0"
"	Colombia; COCOM5H5","0","0","0","1","3","0","0","0","0","0","0","0","0"
"	Colombia; COCOM5GW","2","0","0","0","0","0","1","0","0","1","0","0","0"
"	Colombia; COCOM5GX","0","0","0","0","0","2","0","0","0","2","0","0","0"
"	Colombia; COCOM3DQ","2","0","0","0","0","0","0","0","0","0","2","0","0"
"	Colombia; COCOM1A8","0","0","0","0","0","0","0","2","0","0","1","1","0"
"	Colombia; COCOM1AG","0","0","0","0","0","0","0","0","0","4","0","0","0"
"	Colombia; COCOM13H","0","0","0","1","0","0","0","0","0","0","0","2","0"
"	Colombia; COCOM134","0","0","0","1","2","0","0","0","0","0","0","0","0"
"	Colombia; COCOM2W9","2","0","1","0","0","0","0","0","0","0","0","0","0"
"	Colombia; COCOM2X7","0","0","0","0","0","0","0","0","0","0","3","0","0"
"	Colombia; COCOM16E","1","0","0","0","0","0","0","0","0","0","1","1","0"
"	Colombia; COCOM2ZI","0","0","0","0","0","0","0","0","0","0","2","1","0"
"	Colombia; COCOM2ZC","3","0","0","0","0","0","0","0","0","0","0","0","0"
"	Colombia; COCOM17D","3","0","0","0","0","0","0","0","0","0","0","0","0"
"	Colombia; COCOM5AC","1","0","0","0","0","0","0","0","0","0","2","0","0"
"	Colombia; COCOM5AG","0","0","2","0","0","0","0","1","0","0","0","0","0"
"	Colombia; COCOM5BW","0","0","1","1","0","0","0","1","0","0","0","0","0"
"	Colombia; COCOM5BA","0","0","0","0","0","0","1","0","0","0","0","2","0"
"	Colombia; COCOM6V2","0","0","1","0","0","0","0","0","0","0","0","1","1"
"	Colombia; COCOM2N8","0","0","0","1","1","0","0","0","1","0","0","0","0"
"	Colombia; COCOM2O0","0","0","0","0","0","0","0","3","0","0","0","0","0"
"	Colombia; COCOM2P2","0","0","0","0","0","0","1","0","0","1","0","1","0"
"	Colombia; COCOM4V9","0","0","0","0","0","0","0","1","0","0","1","1","0"
"	Colombia; COCOM344","0","0","3","0","0","0","0","0","0","0","0","0","0"
"	Colombia; COCOM101","0","0","0","1","0","0","0","0","0","0","2","0","0"
"	Colombia; COCOM4Y4","0","0","0","3","0","0","0","0","0","0","0","0","0"
"	Colombia; COCOM594","1","0","0","2","0","0","0","0","0","0","0","0","0"
"	Colombia; COCOM12F","2","0","0","0","1","0","0","0","0","0","0","0","0"
"	Colombia; COCOM2V2","0","0","0","2","0","0","0","0","1","0","0","0","0"
"	Colombia; COCOM2G1","0","0","0","0","0","1","0","0","2","0","0","0","0"
"	Colombia; COCOM6P5","0","0","0","0","0","0","0","1","2","0","0","0","0"
"	Colombia; COCOM2K0","0","0","0","1","1","0","0","0","1","0","0","0","0"
"	Colombia; COCOM6U1","0","0","1","2","0","0","0","0","0","0","0","0","0"
"	Colombia; COCOM6EP","1","0","2","0","0","0","0","0","0","0","0","0","0"
"	Colombia; COCOM6EQ","1","0","1","0","0","0","0","0","0","0","1","0","0"
"	Colombia; COCOM4AR","0","0","0","3","0","0","0","0","0","0","0","0","0"
"	Colombia; COCOM6EW","0","0","0","0","1","0","0","1","1","0","0","0","0"
"	Colombia; COCOM6EN","0","0","1","0","0","0","0","0","1","0","1","0","0"
"	Colombia; COCOM4CQ","2","0","1","0","0","0","0","0","0","0","0","0","0"
"	Colombia; COCOM6I3","1","0","0","1","1","0","0","0","0","0","0","0","0"
"	Colombia; COCOM4DS","0","0","2","0","0","0","0","0","0","0","0","1","0"
"	Colombia; COCOM4DE","0","0","0","0","0","0","0","0","0","0","0","2","1"
"	Colombia; COCOM2AY","0","0","0","1","1","0","0","0","0","0","0","1","0"
"	Colombia; COCOM6J2","0","0","0","0","0","0","2","0","1","0","0","0","0"
"	Colombia; COCOM4FU","0","0","0","0","0","0","0","3","0","0","0","0","0"
"	Colombia; COCOM4FL","0","0","0","2","0","0","0","0","0","1","0","0","0"
"	Colombia; COCOM6L3","0","0","0","0","0","0","0","0","3","0","0","0","0"
"	Colombia; COCOM6M7","0","0","0","0","0","0","1","0","1","1","0","0","0"
"	Colombia; COCOM4HY","0","0","0","3","0","0","0","0","0","0","0","0","0"
"	Colombia; COCOM4HZ","0","0","0","0","0","0","0","1","0","0","0","2","0"
"	Colombia; COCOM4ID","0","0","0","0","0","1","2","0","0","0","0","0","0"
"	Colombia; COCOM1W3","0","0","0","0","0","2","0","0","0","1","0","0","0"
"	Colombia; COCOM3Z9","2","0","0","1","0","0","0","0","0","0","0","0","0"
"	Colombia; COCOM1Y4","0","0","0","0","2","0","0","0","0","0","0","1","0"
"	Colombia; COCOM6CO","0","0","3","0","0","0","0","0","0","0","0","0","0"
"	Colombia; COCOM6CW","1","0","2","0","0","0","0","0","0","0","0","0","0"
"	Colombia; COCOM6CG","0","0","0","1","0","1","0","0","0","0","1","0","0"
"	Colombia; COCOM5X2","0","0","0","2","1","0","0","0","0","0","0","0","0"
"	Colombia; COCOM3S0","0","0","0","0","0","0","0","0","0","0","0","3","0"
"	Colombia; COCOM440","0","0","0","0","0","0","0","0","0","3","0","0","0"
"	Colombia; COCOM201","0","0","0","0","0","0","0","0","0","1","1","0","1"
"	Colombia; COCOM1P6","0","0","0","0","0","0","0","0","0","0","1","2","0"
"	Colombia; COCOM3U9","0","0","0","0","0","3","0","0","0","0","0","0","0"
"	Colombia; COCOM5Z7","0","0","0","0","0","0","3","0","0","0","0","0","0"
"	Colombia; COCOM1R8","0","0","0","0","0","0","0","3","0","0","0","0","0"
"	Colombia; COCOM1R9","0","0","0","0","0","0","0","0","1","0","0","1","1"
"	Colombia; COCOM3X3","0","0","0","0","1","0","0","2","0","0","0","0","0"
"	Colombia; COCOM5L1","0","0","0","0","0","0","0","3","0","0","0","0","0"
"	Colombia; COCOM5M1","1","0","0","2","0","0","0","0","0","0","0","0","0"
"	Colombia; COCOM1EW","0","0","0","1","0","0","0","0","2","0","0","0","0"
"	Colombia; COCOM5P4","0","0","0","0","1","0","0","1","1","0","0","0","0"
"	Colombia; COCOM3L1","0","0","0","0","2","0","0","1","0","0","0","0","0"
"	Colombia; COCOM620","0","0","2","1","0","0","0","0","0","0","0","0","0"
"	Colombia; COCOM1JC","0","0","1","1","0","0","0","0","0","0","0","1","0"
"	Colombia; COCOM5S0","0","0","0","0","0","0","3","0","0","0","0","0","0"
"	Colombia; COCOM5CO","0","0","0","0","0","0","0","0","0","1","2","0","0"
"	Colombia; COCOM5CD","0","0","1","2","0","0","0","0","0","0","0","0","0"
"	Colombia; COCOM5EQ","0","0","0","0","0","0","3","0","0","0","0","0","0"
"	Colombia; COCOM5FQ","0","1","0","0","0","0","1","1","0","0","0","0","0"
"	Colombia; COCOM5G6","0","0","0","0","0","0","0","3","0","0","0","0","0"
"	Colombia; COCOM3BF","0","0","0","0","0","0","0","1","2","0","0","0","0"
"	Colombia; COCOM3BK","1","0","0","1","0","0","0","1","0","0","0","0","0"
"	Colombia; COCOM3BM","0","0","0","0","0","0","0","0","0","0","3","0","0"
"	Colombia; COCOM3DP","0","0","0","0","0","0","0","3","0","0","0","0","0"
"	Colombia; COCOM1AW","0","0","3","0","0","0","0","0","0","0","0","0","0"
"	Colombia; COCOM1BA","0","0","0","2","1","0","0","0","0","0","0","0","0"
"	Colombia; COCOM13F","2","0","0","0","0","0","0","0","0","0","0","0","0"
"	Colombia; COCOM13I","0","0","0","1","1","0","0","0","0","0","0","0","0"
"	Colombia; COCOM2W3","0","0","0","1","0","0","0","0","1","0","0","0","0"
"	Colombia; COCOM2V4","0","0","0","2","0","0","0","0","0","0","0","0","0"
"	Colombia; COCOM15G","1","0","0","0","1","0","0","0","0","0","0","0","0"
"	Colombia; COCOM2X6","0","0","0","0","0","0","1","1","0","0","0","0","0"
"	Colombia; COCOM2Z5","0","0","1","0","0","0","0","0","0","0","0","1","0"
"	Colombia; COCOM2Z6","0","0","0","0","0","0","0","2","0","0","0","0","0"
"	Colombia; COCOM2ZH","0","1","1","0","0","0","0","0","0","0","0","0","0"
"	Colombia; COCOM17H","0","0","0","0","0","0","0","0","0","0","0","2","0"
"	Colombia; COCOM2ZL","0","0","0","0","0","0","1","1","0","0","0","0","0"
"	Colombia; COCOM2ZQ","0","0","0","0","1","0","0","0","1","0","0","0","0"
"	Colombia; COCOM178","0","0","0","0","0","0","1","0","1","0","0","0","0"
"	Colombia; COCOM2ZE","0","0","0","0","2","0","0","0","0","0","0","0","0"
"	Colombia; COCOM2ZF","0","0","0","1","0","0","0","0","1","0","0","0","0"
"	Colombia; COCOM5AO","0","0","0","0","2","0","0","0","0","0","0","0","0"
"	Colombia; COCOM2N1","0","0","0","1","0","0","0","0","0","0","0","1","0"
"	Colombia; COCOM4R2","0","0","0","0","0","0","0","0","1","0","0","1","0"
"	Colombia; COCOM4S1","0","0","0","0","0","0","0","0","2","0","0","0","0"
"	Colombia; COCOM6W8","0","0","1","0","0","0","1","0","0","0","0","0","0"
"	Colombia; COCOM4S8","0","0","0","1","1","0","0","0","0","0","0","0","0"
"	Colombia; COCOM4T0","1","0","0","0","0","0","0","1","0","0","0","0","0"
"	Colombia; COCOM310","0","0","0","0","2","0","0","0","0","0","0","0","0"
"	Colombia; COCOM4T6","0","0","0","1","0","0","0","0","0","0","1","0","0"
"	Colombia; COCOM4V0","1","0","0","0","0","0","0","0","1","0","0","0","0"
"	Colombia; COCOM4U7","0","0","0","2","0","0","0","0","0","0","0","0","0"
"	Colombia; COCOM2Q8","0","0","0","0","1","0","0","1","0","0","0","0","0"
"	Colombia; COCOM4V7","0","0","0","1","1","0","0","0","0","0","0","0","0"
"	Colombia; COCOM2R4","0","0","0","0","0","0","0","0","0","0","1","1","0"
"	Colombia; COCOM2T0","0","0","0","0","1","0","0","0","0","0","0","1","0"
"	Colombia; COCOM4W5","0","0","0","1","0","1","0","0","0","0","0","0","0"
"	Colombia; COCOM2S3","0","0","1","0","0","0","1","0","0","0","0","0","0"
"	Colombia; COCOM4Y0","0","1","1","0","0","0","0","0","0","0","0","0","0"
"	Colombia; COCOM4Y2","0","0","0","0","0","0","0","0","0","0","2","0","0"
"	Colombia; COCOM110","0","0","0","1","0","0","0","1","0","0","0","0","0"
"	Colombia; COCOM12D","0","0","0","0","0","0","0","1","0","0","1","0","0"
"	Colombia; COCOM4IF","0","0","0","2","0","0","0","0","0","0","0","0","0"
"	Colombia; COCOM4IE","0","0","0","0","0","1","1","0","0","0","0","0","0"
"	Colombia; COCOM4IO","0","0","0","1","0","0","0","1","0","0","0","0","0"
"	Colombia; COCOM4JX","2","0","0","0","0","0","0","0","0","0","0","0","0"
"	Colombia; COCOM4JZ","0","0","0","0","0","0","2","0","0","0","0","0","0"
"	Colombia; COCOM4JS","1","0","0","0","0","0","0","0","0","1","0","0","0"
"	Colombia; COCOM4JU","0","0","0","2","0","0","0","0","0","0","0","0","0"
"	Colombia; COCOM4KG","0","0","0","0","0","0","0","1","0","0","1","0","0"
"	Colombia; COCOM4KM","1","0","0","0","0","0","0","1","0","0","0","0","0"
"	Colombia; COCOM4L0","0","0","2","0","0","0","0","0","0","0","0","0","0"
"	Colombia; COCOM6P4","0","0","0","0","0","0","0","0","0","0","0","1","1"
"	Colombia; COCOM6Q3","0","0","0","0","0","0","0","0","0","0","0","2","0"
"	Colombia; COCOM6Q5","1","0","0","0","1","0","0","0","0","0","0","0","0"
"	Colombia; COCOM4N4","1","0","0","0","0","0","0","0","1","0","0","0","0"
"	Colombia; COCOM6S3","0","0","0","0","0","0","0","1","1","0","0","0","0"
"	Colombia; COCOM6S6","1","0","0","0","1","0","0","0","0","0","0","0","0"
"	Colombia; COCOM6T3","0","0","0","0","0","0","0","0","1","0","0","0","1"
"	Colombia; COCOM6F7","0","0","0","0","0","0","0","1","0","0","1","0","0"
"	Colombia; COCOM6EV","0","0","0","0","0","0","0","2","0","0","0","0","0"
"	Colombia; COCOM4AU","0","0","0","0","0","0","0","0","2","0","0","0","0"
"	Colombia; COCOM6G4","0","0","0","1","0","0","0","1","0","0","0","0","0"
"	Colombia; COCOM4BW","0","0","0","0","2","0","0","0","0","0","0","0","0"
"	Colombia; COCOM6FA","0","0","2","0","0","0","0","0","0","0","0","0","0"
"	Colombia; COCOM6FB","0","0","0","2","0","0","0","0","0","0","0","0","0"
"	Colombia; COCOM4BM","1","0","0","0","0","0","0","0","0","0","0","1","0"
"	Colombia; COCOM4DP","0","0","1","0","0","0","0","0","1","0","0","0","0"
"	Colombia; COCOM4DC","1","0","0","0","0","0","0","0","0","0","0","1","0"
"	Colombia; COCOM2AT","0","0","0","0","0","0","0","0","1","1","0","0","0"
"	Colombia; COCOM4EH","1","0","0","0","0","0","0","0","0","0","0","0","1"
"	Colombia; COCOM4FX","0","0","0","0","0","1","1","0","0","0","0","0","0"
"	Colombia; COCOM2BG","0","1","1","0","0","0","0","0","0","0","0","0","0"
"	Colombia; COCOM6K1","2","0","0","0","0","0","0","0","0","0","0","0","0"
"	Colombia; COCOM6L7","0","0","1","1","0","0","0","0","0","0","0","0","0"
"	Colombia; COCOM2CX","0","0","1","0","0","0","0","0","0","0","0","1","0"
"	Colombia; COCOM2DK","0","0","0","0","0","0","0","0","0","0","0","2","0"
"	Colombia; COCOM3Z3","0","0","0","0","0","0","0","2","0","0","0","0","0"
"	Colombia; COCOM3Z5","1","0","0","1","0","0","0","0","0","0","0","0","0"
"	Colombia; COCOM1U9","0","0","0","0","0","2","0","0","0","0","0","0","0"
"	Colombia; COCOM6A0","0","0","0","0","2","0","0","0","0","0","0","0","0"
"	Colombia; COCOM6AE","0","0","0","0","2","0","0","0","0","0","0","0","0"
"	Colombia; COCOM6C3","0","0","0","0","0","0","0","0","0","0","0","2","0"
"	Colombia; COCOM6C8","0","0","0","0","1","0","0","0","0","1","0","0","0"
"	Colombia; COCOM6C9","0","0","0","0","0","0","0","2","0","0","0","0","0"
"	Colombia; COCOM1Y9","0","0","0","1","0","0","0","0","0","0","1","0","0"
"	Colombia; COCOM6CU","0","0","0","0","0","0","1","0","0","0","0","1","0"
"	Colombia; COCOM6DA","0","0","0","1","1","0","0","0","0","0","0","0","0"
"	Colombia; COCOM6DE","2","0","0","0","0","0","0","0","0","0","0","0","0"
"	Colombia; COCOM6DL","0","0","1","0","0","0","1","0","0","0","0","0","0"
"	Colombia; COCOM5T8","2","0","0","0","0","0","0","0","0","0","0","0","0"
"	Colombia; COCOM5U8","0","0","0","1","0","0","0","0","1","0","0","0","0"
"	Colombia; COCOM3R7","0","0","0","0","0","0","0","0","2","0","0","0","0"
"	Colombia; COCOM441","0","0","0","0","0","0","0","0","0","0","0","2","0"
"	Colombia; COCOM685","1","0","0","0","0","0","0","0","0","0","0","1","0"
"	Colombia; COCOM684","0","0","0","0","0","0","0","0","0","0","0","0","2"
"	Colombia; COCOM212","0","0","1","1","0","0","0","0","0","0","0","0","0"
"	Colombia; COCOM211","0","0","0","1","0","0","0","0","0","0","0","0","1"
"	Colombia; COCOM218","1","1","0","0","0","0","0","0","0","0","0","0","0"
"	Colombia; COCOM220","0","0","0","0","1","1","0","0","0","0","0","0","0"
"	Colombia; COCOM1R3","2","0","0","0","0","0","0","0","0","0","0","0","0"
"	Colombia; COCOM3X0","1","0","0","0","0","0","1","0","0","0","0","0","0"
"	Colombia; COCOM3X1","0","0","0","1","0","0","0","1","0","0","0","0","0"
"	Colombia; COCOM1S2","0","0","1","0","0","0","0","0","1","0","0","0","0"
"	Colombia; COCOM5L7","0","0","1","0","0","0","0","1","0","0","0","0","0"
"	Colombia; COCOM5L0","0","0","0","0","2","0","0","0","0","0","0","0","0"
"	Colombia; COCOM5L3","0","0","0","0","0","0","1","0","1","0","0","0","0"
"	Colombia; COCOM1GE","0","0","0","0","0","0","0","2","0","0","0","0","0"
"	Colombia; COCOM1GD","0","0","1","0","1","0","0","0","0","0","0","0","0"
"	Colombia; COCOM600","0","0","0","0","0","2","0","0","0","0","0","0","0"
"	Colombia; COCOM1FP","0","0","2","0","0","0","0","0","0","0","0","0","0"
"	Colombia; COCOM1FR","0","1","0","0","0","0","1","0","0","0","0","0","0"
"	Colombia; COCOM5P5","0","0","0","0","0","0","1","0","0","0","0","0","1"
"	Colombia; COCOM1HZ","2","0","0","0","0","0","0","0","0","0","0","0","0"
"	Colombia; COCOM1IG","0","0","0","1","0","0","0","0","1","0","0","0","0"
"	Colombia; COCOM1IY","0","0","0","0","0","2","0","0","0","0","0","0","0"
"	Colombia; COCOM632","1","0","0","0","0","0","0","0","0","0","0","1","0"
"	Colombia; COCOM3N2","0","0","2","0","0","0","0","0","0","0","0","0","0"
"	Colombia; COCOM1IN","1","0","0","0","0","0","0","0","0","1","0","0","0"
"	Colombia; COCOM1IQ","0","0","0","0","0","0","0","0","0","0","2","0","0"
"	Colombia; COCOM3N3","0","0","0","0","1","0","0","0","0","1","0","0","0"
"	Colombia; COCOM1JK","0","0","0","0","0","0","1","0","0","0","0","1","0"
"	Colombia; COCOM3O3","0","0","0","0","0","0","0","0","1","0","0","1","0"
"	Colombia; COCOM5CP","0","0","0","1","0","1","0","0","0","0","0","0","0"
"	Colombia; COCOM5CR","0","0","0","0","0","0","0","0","0","1","1","0","0"
"	Colombia; COCOM5CT","0","0","2","0","0","0","0","0","0","0","0","0","0"
"	Colombia; COCOM5CG","0","0","0","0","2","0","0","0","0","0","0","0","0"
"	Colombia; COCOM5CH","0","0","0","0","0","0","0","0","0","2","0","0","0"
"	Colombia; COCOM5CL","0","1","0","0","1","0","0","0","0","0","0","0","0"
"	Colombia; COCOM3B5","0","0","0","0","0","2","0","0","0","0","0","0","0"
"	Colombia; COCOM5EY","0","0","0","0","0","0","0","2","0","0","0","0","0"
"	Colombia; COCOM3AE","0","0","0","2","0","0","0","0","0","0","0","0","0"
"	Colombia; COCOM5EN","1","0","0","0","1","0","0","0","0","0","0","0","0"
"	Colombia; COCOM5G2","0","0","0","0","0","2","0","0","0","0","0","0","0"
"	Colombia; COCOM3BZ","1","0","0","0","0","0","0","1","0","0","0","0","0"
"	Colombia; COCOM5FP","1","0","0","0","0","0","1","0","0","0","0","0","0"
"	Colombia; COCOM5GV","0","0","1","1","0","0","0","0","0","0","0","0","0"
"	Colombia; COCOM5GQ","0","0","0","0","0","0","0","0","2","0","0","0","0"
"	Colombia; COCOM5HF","1","0","1","0","0","0","0","0","0","0","0","0","0"
"	Colombia; COCOM1AZ","1","0","0","0","0","0","0","0","1","0","0","0","0"
"	Colombia; COCOM1AO","0","0","2","0","0","0","0","0","0","0","0","0","0"
"	Colombia; COCOM1BB","0","0","0","0","0","0","0","2","0","0","0","0","0"
"	Colombia; COCOM801","1","0","1","0","0","0","0","0","0","0","0","0","0"
"	Colombia; COCOM383","0","0","0","0","0","0","0","0","0","0","0","1","0"
"	Colombia; COCOM377","0","0","0","0","0","0","0","0","1","0","0","0","0"
"	Colombia; COCOM137","0","0","1","0","0","0","0","0","0","0","0","0","0"
"	Colombia; COCOM138","0","0","0","0","0","0","0","0","1","0","0","0","0"
"	Colombia; COCOM4ZA","0","0","0","0","0","0","0","1","0","0","0","0","0"
"	Colombia; COCOM146","0","0","0","0","0","0","0","0","1","0","0","0","0"
"	Colombia; COCOM2Y2","1","0","0","0","0","0","0","0","0","0","0","0","0"
"	Colombia; COCOM2Y4","0","0","0","0","0","0","0","0","0","0","0","0","1"
"	Colombia; COCOM2X8","0","0","0","0","1","0","0","0","0","0","0","0","0"
"	Colombia; COCOM398","1","0","0","0","0","0","0","0","0","0","0","0","0"
"	Colombia; COCOM15A","0","0","0","0","0","0","0","0","0","0","0","1","0"
"	Colombia; COCOM15C","0","0","0","0","0","0","0","0","1","0","0","0","0"
"	Colombia; COCOM2Z7","0","0","0","1","0","0","0","0","0","0","0","0","0"
"	Colombia; COCOM2ZK","0","1","0","0","0","0","0","0","0","0","0","0","0"
"	Colombia; COCOM2ZJ","0","1","0","0","0","0","0","0","0","0","0","0","0"
"	Colombia; COCOM2ZM","0","0","1","0","0","0","0","0","0","0","0","0","0"
"	Colombia; COCOM2ZT","0","0","0","0","0","0","0","0","0","1","0","0","0"
"	Colombia; COCOM17A","0","0","0","0","0","0","0","0","1","0","0","0","0"
"	Colombia; COCOM17B","0","0","0","1","0","0","0","0","0","0","0","0","0"
"	Colombia; COCOM2ZD","0","0","0","0","0","0","0","0","1","0","0","0","0"
"	Colombia; COCOM18F","0","0","0","1","0","0","0","0","0","0","0","0","0"
"	Colombia; COCOM5AM","0","0","0","0","0","0","1","0","0","0","0","0","0"
"	Colombia; COCOM5AS","0","0","0","0","0","1","0","0","0","0","0","0","0"
"	Colombia; COCOM5AW","1","0","0","0","0","0","0","0","0","0","0","0","0"
"	Colombia; COCOM5AF","0","0","0","0","0","0","0","0","0","1","0","0","0"
"	Colombia; COCOM5C0","0","0","0","0","0","0","0","0","0","1","0","0","0"
"	Colombia; SVSP0001","0","0","0","0","0","0","0","0","1","0","0","0","0"
"	Colombia; COCOM5BG","0","0","0","0","0","0","1","0","0","0","0","0","0"
"	Colombia; COCOM4R5","0","0","0","0","0","0","0","0","0","0","0","0","1"
"	Colombia; COCOM2N5","0","0","0","1","0","0","0","0","0","0","0","0","0"
"	Colombia; COCOM2N7","0","0","0","0","0","0","0","1","0","0","0","0","0"
"	Colombia; COCOM4S4","0","0","0","0","0","0","0","0","1","0","0","0","0"
"	Colombia; COCOM2O2","0","0","0","0","0","0","0","0","0","0","0","1","0"
"	Colombia; COCOM4S5","0","0","0","0","0","0","0","0","0","0","0","1","0"
"	Colombia; COCOM2P1","0","0","0","0","1","0","0","0","0","0","0","0","0"
"	Colombia; COCOM4T4","0","0","0","0","0","1","0","0","0","0","0","0","0"
"	Colombia; COCOM2P9","0","0","0","0","0","1","0","0","0","0","0","0","0"
"	Colombia; COCOM4V1","0","0","0","0","0","0","0","0","0","1","0","0","0"
"	Colombia; COCOM566","0","0","0","0","0","0","0","0","0","0","0","1","0"
"	Colombia; COCOM2Q3","0","0","1","0","0","0","0","0","0","0","0","0","0"
"	Colombia; COCOM2Q9","0","0","1","0","0","0","0","0","0","0","0","0","0"
"	Colombia; COCOM2R5","0","0","0","0","0","0","1","0","0","0","0","0","0"
"	Colombia; COCOM4V6","0","0","0","0","1","0","0","0","0","0","0","0","0"
"	Colombia; COCOM6ZC","0","0","0","0","0","0","0","0","0","1","0","0","0"
"	Colombia; COCOM4W3","0","0","1","0","0","0","0","0","0","0","0","0","0"
"	Colombia; COCOM2S5","0","0","0","0","0","0","0","1","0","0","0","0","0"
"	Colombia; COCOM11H","0","0","0","0","0","0","0","0","0","0","1","0","0"
"	Colombia; COCOM120","0","0","0","0","0","0","0","1","0","0","0","0","0"
"	Colombia; COCOM2U1","1","0","0","0","0","0","0","0","0","0","0","0","0"
"	Colombia; COCOM112","0","0","0","0","0","0","0","0","0","0","0","1","0"
"	Colombia; COCOM4Y5","0","0","0","0","0","0","0","0","0","0","1","0","0"
"	Colombia; COCOM2U5","0","0","0","0","0","0","0","0","0","0","0","1","0"
"	Colombia; COCOM123","0","0","0","0","0","0","0","1","0","0","0","0","0"
"	Colombia; COCOM367","0","0","1","0","0","0","0","0","0","0","0","0","0"
"	Colombia; HNHP1237","0","0","0","0","0","0","0","0","0","1","0","0","0"
"	Colombia; COCOM4IJ","0","0","0","0","0","0","0","0","0","0","0","1","0"
"	Colombia; COCOM4IK","0","0","1","0","0","0","0","0","0","0","0","0","0"
"	Colombia; COCOM6N4","0","0","0","0","0","0","0","0","0","0","0","1","0"
"	Colombia; COCOM4KC","0","0","0","0","0","0","0","0","1","0","0","0","0"
"	Colombia; COCOM4JJ","0","0","0","0","1","0","0","0","0","0","0","0","0"
"	Colombia; COCOM4JO","0","0","0","0","0","0","0","0","0","0","1","0","0"
"	Colombia; COCOM4JP","0","0","0","0","0","0","0","0","1","0","0","0","0"
"	Colombia; COCOM4KK","0","0","0","0","0","0","0","0","0","0","1","0","0"
"	Colombia; COCOM2I0","0","0","0","0","0","0","0","0","1","0","0","0","0"
"	Colombia; COCOM6Q4","1","0","0","0","0","0","0","0","0","0","0","0","0"
"	Colombia; COCOM6R1","0","0","1","0","0","0","0","0","0","0","0","0","0"
"	Colombia; COCOM6R3","0","0","0","0","0","0","0","1","0","0","0","0","0"
"	Colombia; COCOM2K2","0","0","0","0","1","0","0","0","0","0","0","0","0"
"	Colombia; COCOM4P1","1","0","0","0","0","0","0","0","0","0","0","0","0"
"	Colombia; COCOM2L1","0","0","0","0","1","0","0","0","0","0","0","0","0"
"	Colombia; COCOM6T7","0","0","0","0","0","0","1","0","0","0","0","0","0"
"	Colombia; COCOM6T9","0","0","0","0","0","0","1","0","0","0","0","0","0"
"	Colombia; COCOM6U0","0","0","0","0","1","0","0","0","0","0","0","0","0"
"	Colombia; COCOM2M7","0","0","0","1","0","0","0","0","0","0","0","0","0"
"	Colombia; COCOM6EO","0","1","0","0","0","0","0","0","0","0","0","0","0"
"	Colombia; COCOM6F3","0","0","0","0","1","0","0","0","0","0","0","0","0"
"	Colombia; COCOM6ET","0","0","0","0","0","0","0","0","1","0","0","0","0"
"	Colombia; COCOM6ES","0","0","0","0","1","0","0","0","0","0","0","0","0"
"	Colombia; COCOM4BQ","0","0","0","0","0","1","0","0","0","0","0","0","0"
"	Colombia; COCOM6FR","0","0","0","0","1","0","0","0","0","0","0","0","0"
"	Colombia; COCOM4BS","0","0","1","0","0","0","0","0","0","0","0","0","0"
"	Colombia; COCOM6FU","0","0","0","0","0","0","0","0","1","0","0","0","0"
"	Colombia; COCOM6G7","0","0","0","0","1","0","0","0","0","0","0","0","0"
"	Colombia; COCOM4BC","0","0","0","0","0","0","0","0","1","0","0","0","0"
"	Colombia; COCOM6FF","0","0","0","0","0","1","0","0","0","0","0","0","0"
"	Colombia; COCOM6FH","0","0","0","0","0","1","0","0","0","0","0","0","0"
"	Colombia; COCOM4BJ","1","0","0","0","0","0","0","0","0","0","0","0","0"
"	Colombia; COCOM6H9","0","0","0","0","1","0","0","0","0","0","0","0","0"
"	Colombia; COCOM4D9","1","0","0","0","0","0","0","0","0","0","0","0","0"
"	Colombia; COCOM6H1","0","0","0","0","0","0","0","0","0","0","0","1","0"
"	Colombia; COCOM6I9","1","0","0","0","0","0","0","0","0","0","0","0","0"
"	Colombia; COCOM2AP","0","1","0","0","0","0","0","0","0","0","0","0","0"
"	Colombia; COCOM2AS","0","0","0","0","0","0","0","0","0","1","0","0","0"
"	Colombia; COCOM2AV","0","0","0","0","0","0","0","0","0","1","0","0","0"
"	Colombia; COCOM2AZ","0","0","1","0","0","0","0","0","0","0","0","0","0"
"	Colombia; COCOM2AE","1","0","0","0","0","0","0","0","0","0","0","0","0"
"	Colombia; COCOM2AL","0","0","0","0","1","0","0","0","0","0","0","0","0"
"	Colombia; COCOM2C9","0","0","0","1","0","0","0","0","0","0","0","0","0"
"	Colombia; COCOM2BE","0","0","0","0","0","0","0","1","0","0","0","0","0"
"	Colombia; COCOM2BL","0","0","0","0","0","0","0","1","0","0","0","0","0"
"	Colombia; COCOM6K3","0","0","0","1","0","0","0","0","0","0","0","0","0"
"	Colombia; COCOM4H4","0","0","0","0","0","0","0","0","0","1","0","0","0"
"	Colombia; COCOM2CQ","0","0","0","0","1","0","0","0","0","0","0","0","0"
"	Colombia; COCOM2CT","0","0","0","0","0","0","0","1","0","0","0","0","0"
"	Colombia; COCOM2CY","0","0","0","0","0","0","0","1","0","0","0","0","0"
"	Colombia; COCOM2CC","0","0","0","0","0","0","0","0","0","0","0","1","0"
"	Colombia; COCOM2CF","0","0","0","0","0","0","0","1","0","0","0","0","0"
"	Colombia; COCOM4GG","0","0","0","0","0","0","0","0","0","0","0","0","1"
"	Colombia; COCOM6L2","0","0","0","1","0","0","0","0","0","0","0","0","0"
"	Colombia; COCOM6M8","0","0","0","0","1","0","0","0","0","0","0","0","0"
"	Colombia; COCOM6M9","0","0","0","1","0","0","0","0","0","0","0","0","0"
"	Colombia; COCOM4HX","0","1","0","0","0","0","0","0","0","0","0","0","0"
"	Colombia; COCOM4IC","0","0","0","0","0","0","0","0","0","0","1","0","0"
"	Colombia; COCOM4HM","1","0","0","0","0","0","0","0","0","0","0","0","0"
"	Colombia; COCOM263","0","0","0","0","1","0","0","0","0","0","0","0","0"
"	Colombia; COCOM271","0","0","0","0","0","0","0","1","0","0","0","0","0"
"	Colombia; COCOM1U6","0","0","0","0","1","0","0","0","0","0","0","0","0"
"	Colombia; COCOM1V9","0","0","0","0","1","0","0","0","0","0","0","0","0"
"	Colombia; COCOM1X2","0","0","0","0","0","0","0","0","0","0","0","1","0"
"	Colombia; COCOM291","0","0","1","0","0","0","0","0","0","0","0","0","0"
"	Colombia; COCOM1X4","0","0","0","1","0","0","0","0","0","0","0","0","0"
"	Colombia; COCOM1X3","0","0","0","1","0","0","0","0","0","0","0","0","0"
"	Colombia; COCOM1Y7","0","0","0","0","0","0","0","0","1","0","0","0","0"
"	Colombia; COCOM1Y6","0","0","0","0","0","0","0","0","1","0","0","0","0"
"	Colombia; COCOM1X8","0","0","0","0","0","0","0","0","1","0","0","0","0"
"	Colombia; COCOM6AB","0","0","0","0","0","0","0","0","0","0","0","1","0"
"	Colombia; COCOM6C1","1","0","0","0","0","0","0","0","0","0","0","0","0"
"	Colombia; COCOM1Z4","0","0","0","0","1","0","0","0","0","0","0","0","0"
"	Colombia; COCOM6CT","0","0","0","1","0","0","0","0","0","0","0","0","0"
"	Colombia; COCOM6CY","0","0","0","0","0","0","0","1","0","0","0","0","0"
"	Colombia; COCOM1ZE","0","0","0","0","0","0","0","1","0","0","0","0","0"
"	Colombia; COCOM6CK","0","0","0","0","0","1","0","0","0","0","0","0","0"
"	Colombia; COCOM6E8","0","0","0","0","0","0","0","0","0","0","1","0","0"
"	Colombia; COCOM6DK","0","0","0","0","0","1","0","0","0","0","0","0","0"
"	Colombia; COCOM3P6","0","0","0","0","0","0","0","0","0","1","0","0","0"
"	Colombia; COCOM5V0","0","0","0","0","0","1","0","0","0","0","0","0","0"
"	Colombia; COCOM5U0","0","0","0","0","0","0","0","0","0","1","0","0","0"
"	Colombia; COCOM5W0","0","0","0","0","0","0","0","1","0","0","0","0","0"
"	Colombia; COCOM5V3","0","0","0","0","0","0","0","0","0","0","1","0","0"
"	Colombia; COCOM3R9","0","0","0","0","1","0","0","0","0","0","0","0","0"
"	Colombia; COCOM3S1","0","0","1","0","0","0","0","0","0","0","0","0","0"
"	Colombia; COCOM3S2","0","0","0","0","1","0","0","0","0","0","0","0","0"
"	Colombia; COCOM687","0","0","0","0","0","0","1","0","0","0","0","0","0"
"	Colombia; COCOM5Y1","0","0","0","0","1","0","0","0","0","0","0","0","0"
"	Colombia; COCOM457","0","0","0","0","0","0","0","0","0","0","0","0","1"
"	Colombia; COCOM5Z2","0","0","0","0","0","0","0","0","1","0","0","0","0"
"	Colombia; COCOM463","0","0","0","0","1","0","0","0","0","0","0","0","0"
"	Colombia; COCOM1Q0","0","0","0","0","1","0","0","0","0","0","0","0","0"
"	Colombia; COCOM5Y8","0","0","0","0","0","1","0","0","0","0","0","0","0"
"	Colombia; COCOM3U6","0","0","0","0","0","0","0","0","0","0","0","1","0"
"	Colombia; COCOM469","0","0","0","1","0","0","0","0","0","0","0","0","0"
"	Colombia; COCOM3V4","0","0","0","0","0","0","1","0","0","0","0","0","0"
"	Colombia; COCOM1R4","0","0","0","0","0","0","0","1","0","0","0","0","0"
"	Colombia; COCOM5Z8","0","0","0","0","1","0","0","0","0","0","0","0","0"
"	Colombia; COCOM5Z9","0","0","0","1","0","0","0","0","0","0","0","0","0"
"	Colombia; COCOM3V7","0","0","0","0","0","0","0","0","1","0","0","0","0"
"	Colombia; COCOM5ZD","0","0","0","0","0","0","0","0","0","1","0","0","0"
"	Colombia; COCOM5ZC","0","0","0","0","1","0","0","0","0","0","0","0","0"
"	Colombia; HNHP1224","0","0","0","0","0","0","0","0","0","1","0","0","0"
"	Colombia; COCOM1T2","0","0","0","0","0","0","0","0","1","0","0","0","0"
"	Colombia; COCOM1DL","1","0","0","0","0","0","0","0","0","0","0","0","0"
"	Colombia; COCOM5M0","0","0","0","0","0","0","0","0","1","0","0","0","0"
"	Colombia; COCOM1DK","0","0","0","1","0","0","0","0","0","0","0","0","0"
"	Colombia; COCOM5M3","0","0","0","0","1","0","0","0","0","0","0","0","0"
"	Colombia; COCOM1DQ","0","0","0","0","1","0","0","0","0","0","0","0","0"
"	Colombia; COCOM5N2","0","0","0","0","0","0","0","0","0","0","0","1","0"
"	Colombia; COCOM5N5","0","0","0","1","0","0","0","0","0","0","0","0","0"
"	Colombia; COCOM1FZ","0","0","0","0","0","0","0","1","0","0","0","0","0"
"	Colombia; COCOM1GA","0","0","0","0","0","0","0","0","0","0","1","0","0"
"	Colombia; COCOM601","0","0","0","0","0","0","0","0","1","0","0","0","0"
"	Colombia; COCOM5O0","0","0","1","0","0","0","0","0","0","0","0","0","0"
"	Colombia; COCOM5O3","0","0","0","0","1","0","0","0","0","0","0","0","0"
"	Colombia; COCOM3K3","0","0","0","0","0","0","0","1","0","0","0","0","0"
"	Colombia; COCOM609","0","0","0","0","0","0","0","0","1","0","0","0","0"
"	Colombia; COCOM608","0","0","0","0","0","0","0","0","1","0","0","0","0"
"	Colombia; COCOM1GM","0","0","0","0","0","0","0","0","0","0","0","1","0"
"	Colombia; COCOM614","0","0","0","1","0","0","0","0","0","0","0","0","0"
"	Colombia; COCOM1H3","0","0","1","0","0","0","0","0","0","0","0","0","0"
"	Colombia; COCOM621","0","0","0","0","0","0","0","0","1","0","0","0","0"
"	Colombia; COCOM5Q7","0","0","0","0","1","0","0","0","0","0","0","0","0"
"	Colombia; COCOM1JB","0","0","0","1","0","0","0","0","0","0","0","0","0"
"	Colombia; COCOM3N0","0","0","0","0","0","0","0","0","1","0","0","0","0"
"	Colombia; COCOM1IO","0","0","0","0","1","0","0","0","0","0","0","0","0"
"	Colombia; COCOM3N6","0","0","0","1","0","0","0","0","0","0","0","0","0"
"	Colombia; COCOM3N9","0","0","1","0","0","0","0","0","0","0","0","0","0"
"	Colombia; COCOM5S1","0","0","0","1","0","0","0","0","0","0","0","0","0"
"	Colombia; COCOM641","0","0","0","0","0","0","0","0","0","0","0","1","0"
"	Colombia; COCOM3O0","0","0","0","0","0","0","0","0","0","0","0","1","0"
"	Colombia; COCOM3O2","0","0","0","0","0","0","0","1","0","0","0","0","0"
"	Colombia; COCOM5S6","0","0","0","0","0","1","0","0","0","0","0","0","0"
"	Colombia; COCOM5S9","0","0","0","0","0","0","0","0","1","0","0","0","0"
"	Colombia; COCOM3O9","0","0","1","0","0","0","0","0","0","0","0","0","0"
"	Colombia; COCOM5CS","0","0","1","0","0","0","0","0","0","0","0","0","0"
"	Colombia; COCOM5CC","1","0","0","0","0","0","0","0","0","0","0","0","0"
"	Colombia; COCOM5DB","0","0","0","0","0","1","0","0","0","0","0","0","0"
"	Colombia; COCOM5DA","0","0","0","0","0","0","0","0","0","0","1","0","0"
"	Colombia; COCOM5DD","0","0","0","1","0","0","0","0","0","0","0","0","0"
"	Colombia; COCOM3AQ","0","0","0","0","0","0","0","0","1","0","0","0","0"
"	Colombia; COCOM3AP","0","0","0","0","0","0","1","0","0","0","0","0","0"
"	Colombia; COCOM5ED","0","0","0","1","0","0","0","0","0","0","0","0","0"
"	Colombia; COCOM5EL","0","0","0","0","0","0","1","0","0","0","0","0","0"
"	Colombia; COCOM5EO","1","0","0","0","0","0","0","0","0","0","0","0","0"
"	Colombia; COCOM5G3","0","0","0","0","0","0","0","0","1","0","0","0","0"
"	Colombia; COCOM3BV","0","0","0","0","0","0","0","0","0","0","0","1","0"
"	Colombia; COCOM3BE","0","0","0","0","0","0","0","0","1","0","0","0","0"
"	Colombia; COCOM5FJ","1","0","0","0","0","0","0","0","0","0","0","0","0"
"	Colombia; COCOM3BH","0","0","0","0","0","0","0","0","0","0","1","0","0"
"	Colombia; COCOM5GU","0","0","0","0","0","0","0","1","0","0","0","0","0"
"	Colombia; COCOM5HA","0","0","0","1","0","0","0","0","0","0","0","0","0"
"	Colombia; COCOM5GC","0","1","0","0","0","0","0","0","0","0","0","0","0"
"	Colombia; COCOM3CF","0","0","0","0","0","0","0","0","1","0","0","0","0"
"	Colombia; COCOM3DT","0","0","1","0","0","0","0","0","0","0","0","0","0"
"	Colombia; COCOM5HG","0","1","0","0","0","0","0","0","0","0","0","0","0"
"	Colombia; COCOM5HK","0","0","0","1","0","0","0","0","0","0","0","0","0"
"	Colombia; COCOM3DM","0","0","0","0","0","0","0","0","1","0","0","0","0"
"	Colombia; COCOM5HQ","1","0","0","0","0","0","0","0","0","0","0","0","0"
"	Colombia; COCOM1B2","1","0","0","0","0","0","0","0","0","0","0","0","0"
"	Colombia; COCOM1AV","0","0","0","0","1","0","0","0","0","0","0","0","0"
"	Colombia; COCOM1AE","0","0","1","0","0","0","0","0","0","0","0","0","0"
"	Colombia; COCOM1AF","0","0","0","0","0","0","0","0","1","0","0","0","0"
"	Colombia; COCOM1AH","0","0","0","0","1","0","0","0","0","0","0","0","0"
"	Colombia; COCOM5J3","1","0","0","0","0","0","0","0","0","0","0","0","0"
"	Colombia; COCOM5K1","0","0","0","1","0","0","0","0","0","0","0","0","0"
"	Colombia; COCOM3FM","0","0","0","0","1","0","0","0","0","0","0","0","0"
